{
    "propertySold": {
        "beginNum": 1, 
        "endNum": 2, 
        "firstPage": true, 
        "lastPage": false, 
        "nextPage": 2, 
        "nextPage2": 3, 
        "pageList": [
            {
                "acreage": 63.21, 
                "allowedPhoto": "http://cdn1.dooioo.com/fetch/vp/fy/gi/20160602/df779075-f9f4-4ab4-a520-f39432c8562e.jpg_200x150.jpg", 
                "allowedPhoto2": "20160602/df779075-f9f4-4ab4-a520-f39432c8562e.jpg", 
                "buildingYear": 1997, 
                "cityCode": "sh", 
                "decoration": "简装", 
                "display": 1, 
                "districtName": "杨浦", 
                "districtSpelling": "yangpu", 
                "face": "南北", 
                "fangBenRemark": "满二", 
                "floorState": "高层/6层", 
                "floorType": 3, 
                "floorTypeName": "高层", 
                "guard": 1, 
                "hall": 1, 
                "houseId": "505569550609", 
                "houseSellId": "4249381", 
                "houseType": "公寓", 
                "label": "is_two_year", 
                "latitude": 31.329536, 
                "longitude": 121.535785, 
                "mainPhotoUrl": "/images/data/ershoufang/list.jpg_200x150.jpg", 
                "metroRemark": "距离8号线市光路站284米", 
                "plateName": "中原", 
                "plateSpelling": "zhongyuan1", 
                "propertyAddress": "开鲁三村", 
                "propertyName": "开鲁三村", 
                "propertyNo": "5011000017964", 
                "propertyUsage": "公寓", 
                "room": 2, 
                "saleAvgPrice": 52565, 
                "saleTotal": 8, 
                "saleUnitPrice": 48093, 
                "showPrice": 304, 
                "soldDate": 1477670400000, 
                "soldDateString": "2016-10-29", 
                "soldDateString2": "2016.10.29", 
                "soldPrice": 0, 
                "soldSource": "链家网", 
                "soldUnitPrice": 0, 
                "soldUserCode": 195837, 
                "status": 1, 
                "title": "开鲁三村 2室1厅 63平米", 
                "totalFloor": 6, 
                "underFloor": 0
            }
        ], 
        "pageNo": 1, 
        "pageSize": 1, 
        "prePage": 1, 
        "prePage2": 1, 
        "totalCount": 33, 
        "totalPage": 33
    }, 
    "errno": 0, 
    "picList": [
        {
            "fullPhotoUrl": "/images/data/ershoufang/detail.jpg_600x450.jpg", 
            "parentCategories": "客厅", 
            "photoUrl": "/images/data/ershoufang/detail.jpg_600x450.jpg"
        }, 
        {
            "fullPhotoUrl": "/images/data/ershoufang/detail.jpg_600x450.jpg", 
            "parentCategories": "户型图", 
            "photoUrl": "/images/data/ershoufang/detail.jpg_600x450.jpg"
        }, 
        {
            "fullPhotoUrl": "/images/data/ershoufang/detail.jpg_600x450.jpg", 
            "parentCategories": "客厅", 
            "photoUrl": "/images/data/ershoufang/detail.jpg_600x450.jpg"
        }, 
        {
            "fullPhotoUrl": "/images/data/ershoufang/detail.jpg_600x450.jpg", 
            "parentCategories": "客厅", 
            "photoUrl": "/images/data/ershoufang/detail.jpg_600x450.jpg"
        }, 
        {
            "fullPhotoUrl": "/images/data/ershoufang/detail.jpg_600x450.jpg", 
            "parentCategories": "主卧", 
            "photoUrl": "/images/data/ershoufang/detail.jpg_600x450.jpg"
        }, 
        {
            "fullPhotoUrl": "/images/data/ershoufang/detail.jpg_600x450.jpg", 
            "parentCategories": "阳台", 
            "photoUrl": "/images/data/ershoufang/detail.jpg_600x450.jpg"
        }
    ], 
    "videoInfo": {
        "youkuVideoId": "57bc0d7e0cf2335cc0ca5505", 
        "videoMainPhotoURL": "http://cdn1.dooioo.com/fetch/vp/fy/gi/20160802/d6d74e76-d436-45f1-84f9-2cbdc3882990.jpg_600x450.jpg"
    }, 
    "property": {
        "allSpell": "kailusancun,klsc", 
        "buildingCount": 73, 
        "changeRate": 6.58, 
        "cityCode": "sh", 
        "completeYear": 1997, 
        "dealAvgPrice": 48188, 
        "districtName": "杨浦", 
        "districtSpelling": "yangpu", 
        "far": 0, 
        "greenRate": 0, 
        "hotImage": "http://image3.lianjia.com/hdic-resblock/21557237-7a25-472c-823d-cb2b051b0e05.jpg.200x150.jpg", 
        "houseType": "住宅 - 公寓", 
        "houseType2": "住宅等", 
        "latitude": 31.329536, 
        "longitude": 121.535785, 
        "metroRemark": "距离8号线市光路站284米", 
        "mgtCompany": "上海君晟物业管理有限公司", 
        "mgtFee": 0, 
        "plateId": "611900112", 
        "plateName": "中原", 
        "plateSpelling": "zhongyuan1", 
        "propertyAddress": "开鲁三村", 
        "propertyAge": 19, 
        "propertyName": "开鲁三村", 
        "propertyNo": "5011000017964", 
        "putAway": 1, 
        "referAvgPrice": 48188, 
        "referChangeRate": 6, 
        "rentTotal": 10, 
        "saleAvgPrice": 52565, 
        "saleChangeRate": -5.69, 
        "saleTotal": 8, 
        "soldCount": 33, 
        "totalRooms": 1592, 
        "webUrl": "http://sh.lianjia.com/xiaoqu/5011000017964.html"
    }, 
    "showAnswer": 1, 
    "soldPriceData": {
        "propertyAvgList": [
            29675, 
            33585, 
            30567, 
            32039, 
            31593, 
            33225, 
            44082, 
            42133, 
            41690, 
            46222, 
            45214, 
            48188
        ], 
        "updateMonth": "2016年10月", 
        "propertyAvg": 48188, 
        "plateAvgList": [
            0, 
            0, 
            0, 
            0, 
            0, 
            0, 
            0, 
            0, 
            0, 
            0, 
            0, 
            0
        ], 
        "monthList": [
            "11月", 
            "12月", 
            "1月", 
            "2月", 
            "3月", 
            "4月", 
            "5月", 
            "6月", 
            "7月", 
            "8月", 
            "9月", 
            "10月"
        ]
    }, 
    "houseSell": {
        "acreage": 75.54, 
        "allowedPhoto": "http://cdn1.dooioo.com/fetch/vp/fy/gi/20160811/5a9f7453-b779-476c-9ace-9274edafcdf4.jpg", 
        "allowedPhoto2": "20160811/5a9f7453-b779-476c-9ace-9274edafcdf4.jpg", 
        "balcony": 0, 
        "buildingType": "", 
        "buildingYear": 1996, 
        "buyTime": 1319472000000, 
        "buyTimeString": "2011-10-25", 
        "cityCode": "sh", 
        "countH": 0, 
        "countT": 0, 
        "decoration": "精装", 
        "display": 1, 
        "face": "南北", 
        "fangBenRemark": "满五", 
        "firstPay": "114", 
        "floor": 0, 
        "floorState": "低层/18层", 
        "floorType": 1, 
        "floorTypeName": "低层", 
        "guard": 1, 
        "hall": 1, 
        "haveLift": 0, 
        "houseId": "505766980816", 
        "id": 4393949, 
        "innerAcreage": -1, 
        "isFollow": false, 
        "isKeyHouse": true, 
        "isSole": false, 
        "label": "is_five_sole is_quick_acting is_key", 
        "latitude": 31.329536, 
        "liftScale": "", 
        "longitude": 121.535785, 
        "lookCount7": 12, 
        "lookCount90": 13, 
        "mainPhotoUrl": "http://cdn1.dooioo.com/fetch/vp/fy/gi/20160802/d6d74e76-d436-45f1-84f9-2cbdc3882990.jpg_200x150.jpg", 
        "metroRemark": "距离8号线市光路站317米", 
        "monthPay": 14117, 
        "mortgage": "", 
        "onlineTime": 1479139200000, 
        "parking": 1, 
        "propertyId": "5011000017964", 
        "propertyRight": "", 
        "propertyUsage": "公寓", 
        "putAway": 1, 
        "qiyiVideoUrl": "http://dispatcher.video.qiyi.com/disp/shareplayer.swf?vid=9a6869692f5672de151101b96d0b20f6&tvId=6174049509&cnId=23&coop=ugc_openapi_lianjia_sh_video&cid=qc_100001_300089&bd=1&autoChainPlay=0&autoplay=1&showRecommend=0", 
        "room": 2, 
        "roomNo": "", 
        "ruleCode": "ruleDefault", 
        "schoolRemark": "", 
        "showPrice": 380, 
        "sole": 1, 
        "tags": "地铁房,满五,有钥匙", 
        "title": "成熟社区，上门实拍，诚意出售，南北户型", 
        "totalFloor": 18, 
        "tradeBelong": "", 
        "type": "公寓", 
        "underFloor": 0, 
        "unitPrice": 50304, 
        "webUrl": "http://sh.lianjia.com/ershoufang/sh4393949.html", 
        "youkuVid": "57bc0d7e0cf2335cc0ca5505"
    }, 
    "status": "ok", 
    "agents": [
        {
            "avatar": "/images/data/staff/staff_150x200.jpg", 
            "commentCount": 0, 
            "custStatus": 0, 
            "display": 1, 
            "extNumber": "202245", 
            "hostNumber": "02151125696", 
            "houseSellId": "4393949", 
            "lookCount": 0, 
            "manager": false, 
            "phone": "02151125696,202245", 
            "phoneNumber": "13917018737", 
            "positionId": 1, 
            "score": 2102, 
            "status": 1, 
            "type": 1, 
            "userCode": "190185", 
            "userName": "吴瑞", 
            "userTitle": "物业顾问"
        }, 
         {
            "avatar": "/images/data/staff/staff_150x200.jpg", 
            "commentCount": 0, 
            "custStatus": 0, 
            "display": 1, 
            "extNumber": "202245", 
            "hostNumber": "02151125696", 
            "houseSellId": "4393949", 
            "lookCount": 0, 
            "manager": false, 
            "phone": "02151125696,202245", 
            "phoneNumber": "13917018737", 
            "positionId": 1, 
            "score": 2102, 
            "status": 1, 
            "type": 1, 
            "userCode": "190185", 
            "userName": "吴瑞", 
            "userTitle": "物业顾问"
        },  {
            "avatar": "/images/data/staff/staff_150x200.jpg", 
            "commentCount": 0, 
            "custStatus": 0, 
            "display": 1, 
            "extNumber": "202245", 
            "hostNumber": "02151125696", 
            "houseSellId": "4393949", 
            "lookCount": 0, 
            "manager": false, 
            "phone": "02151125696,202245", 
            "phoneNumber": "13917018737", 
            "positionId": 1, 
            "score": 2102, 
            "status": 1, 
            "type": 1, 
            "userCode": "190185", 
            "userName": "吴瑞", 
            "userTitle": "物业顾问"
        }
    ]
}